
Microsoft (R) .NET Framework Strong Name Utility  Version 2.0.50727.42
Copyright (c) Microsoft Corporation.  All rights reserved.

Public key is
0024000004800000940000000602000000240000525341310004000001000100792540e2e82816
b80f44b4c62a9ff1a991d43778d41e6f4622c7f3e6168f6f864c16bfc623e4e70c6abdbcbb03dd
75060a8f07411029f86b3284b58d55fca74e54c982e27dfdc5fe3371e657d04edd3b7615e1039a
c5d9e7d3161f873f53dfddbb3a0dd8f33fdbc0f9b054d27ff73a9fa06beb78739abb7fb7052695
b4f2d0cc

Public key token is c839ef3292a781a1
