1000009104069
1000009104078
1000009104087
1000009104096
1000009104102
1000009104111
1000009104120
1000009104139
1000009104148
1000009104157
1000009104166
1000009104175
1000009104184
1000009104193
1000009104209
1000009104218
1000009104227
1000009104236
1000009104245
1000009104254
1000009104263
1000009104272
1000009104281
1000009104290
1000009104306
1000009104315
1000009104324
1000009104333
1000009104342
1000009104351
1000009104360
1000009104379
1000009104388
1000009104397
1000009104403
1000009104412
1000009104421
1000009104430
1000009104449
1000009104458
1000009104467
1000009104476
1000009104485
1000009104494
1000009104500
1000009104519
1000009104528
1000009104537
1000009104546
1000009104555
1000009104564
1000009104573
1000009104582
1000009104591
1000009104607
1000009104616
1000009104625
1000009104634
1000009104643
1000009104652
1000009104661
1000009104670
1000009104689
1000009104698
1000009104704
1000009104713
1000009104722
1000009104731
1000009104740
1000009104759
1000009104768
1000009104777
1000009104786
1000009104795
1000009104801
1000009104810
1000009104829
1000009104838
1000009104847
1000009104856
1000009104865
1000009104874
1000009104883
1000009104892
1000009104908
1000009104917
1000009104926
1000009104935
1000009104944
1000009104953
1000009104962
1000009104971
1000009104980
1000009104999
1000009105008
1000009105017
1000009105026
1000009105035
1000009105044
1000009105053
